^M:\PROJECTS_TEMP\FIBONACCI_MULTIFILE\FIBONACCI_MULTIFILE\INITFIB.CPP
/c /ZI /nologo /W3 /WX- /sdl /Od /Oy- /D _MBCS /Gm /EHsc /RTC1 /MDd /GS /fp:precise /Zc:wchar_t /Zc:forScope /Fo"DEBUG\\" /Fd"DEBUG\VC120.PDB" /Gd /TP /analyze- M:\PROJECTS_TEMP\FIBONACCI_MULTIFILE\FIBONACCI_MULTIFILE\INITFIB.CPP
^M:\PROJECTS_TEMP\FIBONACCI_MULTIFILE\FIBONACCI_MULTIFILE\MAIN.CPP
/c /ZI /nologo /W3 /WX- /sdl /Od /Oy- /D _MBCS /Gm /EHsc /RTC1 /MDd /GS /fp:precise /Zc:wchar_t /Zc:forScope /Fo"DEBUG\\" /Fd"DEBUG\VC120.PDB" /Gd /TP /analyze- M:\PROJECTS_TEMP\FIBONACCI_MULTIFILE\FIBONACCI_MULTIFILE\MAIN.CPP
