^M:\PROJECTS_TEMP\FIBONACCI_MULTIFILE\FIBONACCI_MULTIFILE\MAIN.CPP
C:\WINDOWS\GLOBALIZATION\SORTING\SORTDEFAULT.NLS
C:\WINDOWS\SYSTEM32\NTDLL.DLL
C:\WINDOWS\SYSTEM32\KERNELBASE.DLL
C:\WINDOWS\SYSTEM32\FLTLIB.DLL
C:\WINDOWS\SYSTEM32\KERNEL32.DLL
C:\WINDOWS\SYSTEM32\ADVAPI32.DLL
C:\WINDOWS\SYSTEM32\GDI32.DLL
C:\WINDOWS\SYSTEM32\SSPICLI.DLL
C:\WINDOWS\SYSTEM32\USER32.DLL
C:\PROGRAM FILES (X86)\MICROSOFT VISUAL STUDIO 12.0\VC\BIN\1049\CLUI.DLL
C:\WINDOWS\SYSTEM32\TZRES.DLL
M:\PROJECTS_TEMP\FIBONACCI_MULTIFILE\FIBONACCI_MULTIFILE\ADDDITIONAL.H
^M:\PROJECTS_TEMP\FIBONACCI_MULTIFILE\FIBONACCI_MULTIFILE\INITFIB.CPP
C:\WINDOWS\GLOBALIZATION\SORTING\SORTDEFAULT.NLS
C:\WINDOWS\SYSTEM32\NTDLL.DLL
C:\WINDOWS\SYSTEM32\KERNELBASE.DLL
C:\WINDOWS\SYSTEM32\FLTLIB.DLL
C:\WINDOWS\SYSTEM32\KERNEL32.DLL
C:\WINDOWS\SYSTEM32\ADVAPI32.DLL
C:\WINDOWS\SYSTEM32\GDI32.DLL
C:\WINDOWS\SYSTEM32\SSPICLI.DLL
C:\WINDOWS\SYSTEM32\USER32.DLL
C:\PROGRAM FILES (X86)\MICROSOFT VISUAL STUDIO 12.0\VC\BIN\1049\CLUI.DLL
C:\WINDOWS\SYSTEM32\TZRES.DLL
