^C:\USERS\ALEKSEY_HOME\DOCUMENTS\VISUAL STUDIO 2013\PROJECTS\MONTE-CARLO_METHOD\MONTE-CARLO_METHOD\MONTE-CARLO.CPP
/c /ZI /nologo /W3 /WX- /sdl /Od /Oy- /D _MBCS /Gm /EHsc /RTC1 /MDd /GS /fp:precise /Zc:wchar_t /Zc:forScope /Fo"DEBUG\\" /Fd"DEBUG\VC120.PDB" /Gd /TP /analyze- C:\USERS\ALEKSEY_HOME\DOCUMENTS\VISUAL STUDIO 2013\PROJECTS\MONTE-CARLO_METHOD\MONTE-CARLO_METHOD\MONTE-CARLO.CPP
^C:\USERS\ALEKSEY_HOME\DOCUMENTS\VISUAL STUDIO 2013\PROJECTS\MONTE-CARLO_METHOD\MONTE-CARLO_METHOD\FIBONACCI.CPP
/c /ZI /nologo /W3 /WX- /sdl /Od /Oy- /D _MBCS /Gm /EHsc /RTC1 /MDd /GS /fp:precise /Zc:wchar_t /Zc:forScope /Fo"DEBUG\\" /Fd"DEBUG\VC120.PDB" /Gd /TP /analyze- C:\USERS\ALEKSEY_HOME\DOCUMENTS\VISUAL STUDIO 2013\PROJECTS\MONTE-CARLO_METHOD\MONTE-CARLO_METHOD\FIBONACCI.CPP
^C:\USERS\ALEKSEY_HOME\DOCUMENTS\VISUAL STUDIO 2013\PROJECTS\MONTE-CARLO_METHOD\MONTE-CARLO_METHOD\FIGURE.CPP
/c /ZI /nologo /W3 /WX- /sdl /Od /Oy- /D _MBCS /Gm /EHsc /RTC1 /MDd /GS /fp:precise /Zc:wchar_t /Zc:forScope /Fo"DEBUG\\" /Fd"DEBUG\VC120.PDB" /Gd /TP /analyze- C:\USERS\ALEKSEY_HOME\DOCUMENTS\VISUAL STUDIO 2013\PROJECTS\MONTE-CARLO_METHOD\MONTE-CARLO_METHOD\FIGURE.CPP
^C:\USERS\ALEKSEY_HOME\DOCUMENTS\VISUAL STUDIO 2013\PROJECTS\MONTE-CARLO_METHOD\MONTE-CARLO_METHOD\GENERATE.CPP
/c /ZI /nologo /W3 /WX- /sdl /Od /Oy- /D _MBCS /Gm /EHsc /RTC1 /MDd /GS /fp:precise /Zc:wchar_t /Zc:forScope /Fo"DEBUG\\" /Fd"DEBUG\VC120.PDB" /Gd /TP /analyze- C:\USERS\ALEKSEY_HOME\DOCUMENTS\VISUAL STUDIO 2013\PROJECTS\MONTE-CARLO_METHOD\MONTE-CARLO_METHOD\GENERATE.CPP
^M:\PROJECTS_TEMP\MONTE-CARLO_METHOD\MONTE-CARLO_METHOD\FIBONACCI.CPP
/c /ZI /nologo /W3 /WX- /sdl /Od /Oy- /D _MBCS /Gm /EHsc /RTC1 /MDd /GS /fp:precise /Zc:wchar_t /Zc:forScope /Fo"DEBUG\\" /Fd"DEBUG\VC120.PDB" /Gd /TP /analyze- M:\PROJECTS_TEMP\MONTE-CARLO_METHOD\MONTE-CARLO_METHOD\FIBONACCI.CPP
^M:\PROJECTS_TEMP\MONTE-CARLO_METHOD\MONTE-CARLO_METHOD\FIGURE.CPP
/c /ZI /nologo /W3 /WX- /sdl /Od /Oy- /D _MBCS /Gm /EHsc /RTC1 /MDd /GS /fp:precise /Zc:wchar_t /Zc:forScope /Fo"DEBUG\\" /Fd"DEBUG\VC120.PDB" /Gd /TP /analyze- M:\PROJECTS_TEMP\MONTE-CARLO_METHOD\MONTE-CARLO_METHOD\FIGURE.CPP
^M:\PROJECTS_TEMP\MONTE-CARLO_METHOD\MONTE-CARLO_METHOD\GENERATE.CPP
/c /ZI /nologo /W3 /WX- /sdl /Od /Oy- /D _MBCS /Gm /EHsc /RTC1 /MDd /GS /fp:precise /Zc:wchar_t /Zc:forScope /Fo"DEBUG\\" /Fd"DEBUG\VC120.PDB" /Gd /TP /analyze- M:\PROJECTS_TEMP\MONTE-CARLO_METHOD\MONTE-CARLO_METHOD\GENERATE.CPP
^M:\PROJECTS_TEMP\MONTE-CARLO_METHOD\MONTE-CARLO_METHOD\MONTE-CARLO.CPP
/c /ZI /nologo /W3 /WX- /sdl /Od /Oy- /D _MBCS /Gm /EHsc /RTC1 /MDd /GS /fp:precise /Zc:wchar_t /Zc:forScope /Fo"DEBUG\\" /Fd"DEBUG\VC120.PDB" /Gd /TP /analyze- M:\PROJECTS_TEMP\MONTE-CARLO_METHOD\MONTE-CARLO_METHOD\MONTE-CARLO.CPP
