^M:\PROJECTS_TEMP\FIBONACCI\FIBONACCI\MAIN.CPP
M:\PROJECTS_TEMP\FIBONACCI\FIBONACCI\DEBUG\VC120.PDB
M:\PROJECTS_TEMP\FIBONACCI\FIBONACCI\DEBUG\VC120.IDB
M:\PROJECTS_TEMP\FIBONACCI\FIBONACCI\DEBUG\MAIN.OBJ
